MaquinaEstacionaria/simulation/qsim/MaquinaDestadosV1.msim.vcd
$comment
	File created using the following command:
		vcd file MaquinaDestadosV1.msim.vcd -direction
$end
$date
	Tue Feb 07 18:56:02 2023
$end
$version
	ModelSim Version 10.1d
$end
$timescale
	1ps
$end
$scope module MaquinaDestadosV1_vlg_vec_tst $end
$var reg 1 ! C1 $end
$var reg 1 " C2 $end
$var reg 1 # CLK $end
$var reg 1 $ Pop $end
$var reg 1 % Push $end
$var wire 1 & Dec $end
$var wire 1 ' Empty $end
$var wire 1 ( Full $end
$var wire 1 ) INC $end
$var wire 1 * L $end
$var wire 1 + sampler $end
$scope module i1 $end
$var wire 1 , gnd $end
$var wire 1 - vcc $end
$var wire 1 . unknown $end
$var tri1 1 / devclrn $end
$var tri1 1 0 devpor $end
$var tri1 1 1 devoe $end
$var wire 1 2 L~output_o $end
$var wire 1 3 INC~output_o $end
$var wire 1 4 Full~output_o $end
$var wire 1 5 Empty~output_o $end
$var wire 1 6 Dec~output_o $end
$var wire 1 7 CLK~input_o $end
$var wire 1 8 CLK~inputclkctrl_outclk $end
$var wire 1 9 Push~input_o $end
$var wire 1 : C2~input_o $end
$var wire 1 ; Pop~input_o $end
$var wire 1 < C1~input_o $end
$var wire 1 = inst5~0_combout $end
$var wire 1 > inst|inst69~combout $end
$var wire 1 ? inst|inst7~0_combout $end
$var wire 1 @ inst10~0_combout $end
$var wire 1 A inst10~1_combout $end
$var wire 1 B Q1~q $end
$var wire 1 C inst42~combout $end
$var wire 1 D Q2~q $end
$var wire 1 E inst16~0_combout $end
$var wire 1 F Q0~q $end
$var wire 1 G inst45~combout $end
$var wire 1 H and3~combout $end
$var wire 1 I and4~combout $end
$var wire 1 J and2~0_combout $end
$upscope $end
$upscope $end
$enddefinitions $end
#0
$dumpvars
0!
0"
0#
0$
0%
0&
0'
0(
0)
0*
x+
0,
1-
x.
1/
10
11
02
03
04
05
06
07
08
09
0:
0;
0<
0=
0>
0?
1@
1A
0B
1C
0D
1E
0F
0G
0H
0I
0J
$end
#25000
1#
17
18
0+
1F
1D
1B
0C
#50000
0#
07
08
1+
#60000
1!
1<
0+
1>
1=
0E
#75000
1#
17
18
1+
0F
0D
1E
1J
16
1&
#100000
0!
0#
0<
07
08
0+
0>
0=
#125000
1#
17
18
1+
1F
0J
1H
06
14
0&
1(
#150000
0#
07
08
0+
#175000
1#
17
18
1+
#200000
0#
07
08
0+
#225000
1#
17
18
1+
#250000
0#
07
08
0+
#275000
1#
17
18
1+
#300000
0#
07
08
0+
#325000
1#
17
18
1+
#350000
0#
07
08
0+
#375000
1#
17
18
1+
#400000
0#
07
08
0+
#425000
1#
17
18
1+
#450000
0#
07
08
0+
#475000
1#
17
18
1+
#500000
0#
07
08
0+
#525000
1#
17
18
1+
#550000
0#
07
08
0+
#575000
1#
17
18
1+
#600000
0#
07
08
0+
#625000
1#
17
18
1+
#650000
0#
07
08
0+
#675000
1#
17
18
1+
#700000
0#
07
08
0+
#725000
1#
17
18
1+
#750000
0#
07
08
0+
#775000
1#
17
18
1+
#800000
0#
07
08
0+
#825000
1#
17
18
1+
#850000
0#
07
08
0+
#875000
1#
17
18
1+
#900000
0#
07
08
0+
#925000
1#
17
18
1+
#950000
0#
07
08
0+
#975000
1#
17
18
1+
